^C:\USERS\PASTUKHOV.SI\SOURCE\REPOS\OBJECTS\TEST\PCH.CPP
/c /I"C:\USERS\PASTUKHOV.SI\SOURCE\REPOS\OBJECTS\PACKAGES\MICROSOFT.GOOGLETEST.V140.WINDESKTOP.MSVCSTL.STATIC.RT-DYN.1.8.0\BUILD\NATIVE\INCLUDE" /Zi /nologo /W3 /WX- /diagnostics:classic /Od /Oy- /D WIN32 /D _DEBUG /D _CONSOLE /D _UNICODE /D UNICODE /Gm /EHsc /RTC1 /MDd /GS /fp:precise /Zc:wchar_t /Zc:forScope /Zc:inline /Yc"pch.h" /Fp"DEBUG\TEST.PCH" /Fo"DEBUG\\" /Fd"DEBUG\VC141.PDB" /Gd /TP /analyze- /FC C:\USERS\PASTUKHOV.SI\SOURCE\REPOS\OBJECTS\TEST\PCH.CPP
^C:\USERS\PASTUKHOV.SI\SOURCE\REPOS\OBJECTS\TEST\TEST.CPP
/c /I"C:\USERS\PASTUKHOV.SI\SOURCE\REPOS\OBJECTS\PACKAGES\MICROSOFT.GOOGLETEST.V140.WINDESKTOP.MSVCSTL.STATIC.RT-DYN.1.8.0\BUILD\NATIVE\INCLUDE" /Zi /nologo /W3 /WX- /diagnostics:classic /Od /Oy- /D WIN32 /D _DEBUG /D _CONSOLE /D _UNICODE /D UNICODE /Gm /EHsc /RTC1 /MDd /GS /fp:precise /Zc:wchar_t /Zc:forScope /Zc:inline /Yu"pch.h" /Fp"DEBUG\TEST.PCH" /Fo"DEBUG\\" /Fd"DEBUG\VC141.PDB" /Gd /TP /analyze- /FC C:\USERS\PASTUKHOV.SI\SOURCE\REPOS\OBJECTS\TEST\TEST.CPP
